dplyr part 1: Choosing rows and columns - Reproducible Data Analysis
…
## [1] NA

You would think the answer would be TRUE because both a and b are NA, but in fact if there is an NA on either side of a logical operator, the operator will return NA.

Often we want to remove NA values from our calculations. For this, the is.na() function is useful: it returns TRUE for NAs and FALSE otherwise. filter(flights, !is.na(tailnum)) would give us a data frame with only the rows that have a non-NA value for tailnum.

Choose columns with select()

If we want to choose a subset of columns from our data frame, we can use select(). This works similarly to filter() - it keeps the columns that match and throws away the rest.

We can select() columns by name:

select(flights, carrier, year)

## # A tibble: 336,776 x 2
##    carrier  year
##    <chr>   <int>
##  1 UA       2013
##  2 UA       2013
##  3 AA       2013
##  4 B6       2013
##  5 DL       2013
##  6 UA       2013
##  7 B6       2013
##  8 EV       2013
##  9 B6       2013
## 10 AA       2013
## # … with 336,766 more rows

or by pattern:

select(flights, contains("hour"))

## # A tibble: 336,776 x 2
##     hour time_hour          
##    <dbl> <dttm>             
##  1     5 2013-01-01 05:00:00
##  2     5 2013-01-01 05:00:00
##  3     5 2013-01-01 05:00:00
##  4     5 2013-01-01 05:00:00
##  5     6 2013-01-01 06:00:00
##  6     5 2013-01-01 05:00:00
##  7     6 2013-01-01 06:00:00
##  8     6 2013-01-01 06:00:00
##  9     6 2013-01-01 06:00:00
## 10     6 2013-01-01 06:00:00
## # … with 336,766 more rows

or by numeric position of the column in the data frame:

select(flights, 1:3)

## # A tibble: 336,776 x 3
##     year month   day
##    <int> <int> <int>
##  1  2013     1     1
##  2  2013     1     1
##  3  2013     1     1
##  4  2013     1     1
##  5  2013     1     1
##  6  2013     1     1
##  7  2013     1     1
##  8  2013     1     1
##  9  2013     1     1
## 10  2013     1     1
## # … with 336,766 more rows
…
