dplyr part 2: Performing calculations on data frames - Reproducible Data Analysis
…
We get back the same data frame, with a new column added: dist.km. Just like with summarise(), we can add add multiple new columns with one mutate() call:

flights_obsolete_units <- mutate(flights, 
                                 dist.furlongs = distance * 8,
                                 dist.leagues = distance * 0.29,
                                 dist.rods = distance * 320)
select(flights_obsolete_units, distance, dist.furlongs, dist.leagues, dist.rods)

## # A tibble: 336,776 x 4
##    distance dist.furlongs dist.leagues dist.rods
##       <dbl>         <dbl>        <dbl>     <dbl>
##  1     1400         11200        406      448000
##  2     1416         11328        411.     453120
##  3     1089          8712        316.     348480
##  4     1576         12608        457.     504320
##  5      762          6096        221.     243840
##  6      719          5752        209.     230080
##  7     1065          8520        309.     340800
##  8      229          1832         66.4     73280
##  9      944          7552        274.     302080
## 10      733          5864        213.     234560
## # … with 336,766 more rows
…
