dplyr part 3: splitting data frames with group_by() - Reproducible Data Analysis
…
Now we have the mean and standard deviation of flight distance for each carrier separately! This would be a pain to do in Excel, or in basically any other programming language1!

We can also group by multiple categories, to get a unique answer for each unique combination of variables:

finely_grouped_flights <- group_by(flights, month, carrier)
summarise(finely_grouped_flights, 
          mean.dist = mean(distance, na.rm = TRUE),
          sd.dist = sd(distance, na.rm = TRUE))

## `summarise()` regrouping output by 'month' (override with `.groups` argument)

## # A tibble: 185 x 4
## # Groups:   month [12]
##    month carrier mean.dist sd.dist
##    <int> <chr>       <dbl>   <dbl>
##  1     1 9E           476.    334.
##  2     1 AA          1350.    626.
##  3     1 AS          2402       0 
##  4     1 B6          1062.    681.
##  5     1 DL          1220.    644.
##  6     1 EV           522.    294.
##  7     1 F9          1620       0 
##  8     1 FL           691.    142.
##  9     1 HA          4983       0 
## 10     1 MQ           566.    223.
## # … with 175 more rows
…
